%YAML 1.1
%TAG !u! tag:unity3d.com,2011:
--- !u!114 &11400000
MonoBehaviour:
  m_ObjectHideFlags: 0
  m_CorrespondingSourceObject: {fileID: 0}
  m_PrefabInstance: {fileID: 0}
  m_PrefabAsset: {fileID: 0}
  m_GameObject: {fileID: 0}
  m_Enabled: 1
  m_EditorHideFlags: 0
  m_Script: {fileID: 11500000, guid: 6eb185102af884175b7c40432d66ce6f, type: 3}
  m_Name: Smile
  m_EditorClassIdentifier: 
  ExpresionName: Snarl
  BlendShapeRanges:
  - BlendShape: 44
    LowBound: 0.3
    UpperBound: 1
    DetectionCount: 0
    Action:
      MethodName: ChangeEyeColor
      Delay: 0
  - BlendShape: 45
    LowBound: 0.3
    UpperBound: 1
    DetectionCount: 0
    Action:
      MethodName: ChangeEyeColor
      Delay: 0
  - BlendShape: 9
    LowBound: 0.3
    UpperBound: 1
    DetectionCount: 0
    Action:
      MethodName: ChangeEyeColor
      Delay: 0
  Action:
    MethodName: 
    Delay: 0
